[
  [
    "https://services.gradle.org/distributions/gradle-0.7-all.zip.sha256",
    200
  ],
  [
    "https://services.gradle.org/distributions/gradle-0.7-bin.zip.sha256",
    200
  ],
  [
    "https://services.gradle.org/distributions/gradle-0.8-all.zip.sha256",
    200
  ],
  [
    "https://services.gradle.org/distributions/gradle-0.8-bin.zip.sha256",
    200
  ],
  [
    "https://services.gradle.org/distributions/gradle-0.9-all.zip.sha256",
    200
  ],
  [
    "https://services.gradle.org/distributions/gradle-0.9-bin.zip.sha256",
    200
  ],
  [
    "https://services.gradle.org/distributions/gradle-0.9-rc-1-all.zip.sha256",
    200
  ],
  [
    "https://services.gradle.org/distributions/gradle-0.9-rc-1-bin.zip.sha256",
    200
  ],
  [
    "https://services.gradle.org/distributions/gradle-0.9-rc-2-all.zip.sha256",
    200
  ],
  [
    "https://services.gradle.org/distributions/gradle-0.9-rc-2-bin.zip.sha256",
    200
  ],
  [
    "https://services.gradle.org/distributions/gradle-0.9-rc-3-all.zip.sha256",
    200
  ],
  [
    "https://services.gradle.org/distributions/gradle-0.9-rc-3-bin.zip.sha256",
    200
  ],
  [
    "https://services.gradle.org/distributions/gradle-0.9.1-all.zip.sha256",
    200
  ],
  [
    "https://services.gradle.org/distributions/gradle-0.9.1-bin.zip.sha256",
    200
  ],
  [
    "https://services.gradle.org/distributions/gradle-0.9.2-all.zip.sha256",
    200
  ],
  [
    "https://services.gradle.org/distributions/gradle-0.9.2-bin.zip.sha256",
    200
  ],
  [
    "https://services.gradle.org/distributions/gradle-1.0-all.zip.sha256",
    200
  ],
  [
    "https://services.gradle.org/distributions/gradle-1.0-bin.zip.sha256",
    200
  ],
  [
    "https://services.gradle.org/distributions/gradle-1.0-milestone-1-all.zip.sha256",
    200
  ],
  [
    "https://services.gradle.org/distributions/gradle-1.0-milestone-1-bin.zip.sha256",
    200
  ],
  [
    "https://services.gradle.org/distributions/gradle-1.0-milestone-2-all.zip.sha256",
    200
  ],
  [
    "https://services.gradle.org/distributions/gradle-1.0-milestone-2-bin.zip.sha256",
    200
  ],
  [
    "https://services.gradle.org/distributions/gradle-1.0-milestone-3-all.zip.sha256",
    200
  ],
  [
    "https://services.gradle.org/distributions/gradle-1.0-milestone-3-bin.zip.sha256",
    200
  ],
  [
    "https://services.gradle.org/distributions/gradle-1.0-milestone-4-all.zip.sha256",
    200
  ],
  [
    "https://services.gradle.org/distributions/gradle-1.0-milestone-4-bin.zip.sha256",
    200
  ],
  [
    "https://services.gradle.org/distributions/gradle-1.0-milestone-5-all.zip.sha256",
    200
  ],
  [
    "https://services.gradle.org/distributions/gradle-1.0-milestone-5-bin.zip.sha256",
    200
  ],
  [
    "https://services.gradle.org/distributions/gradle-1.0-milestone-6-all.zip.sha256",
    200
  ],
  [
    "https://services.gradle.org/distributions/gradle-1.0-milestone-6-bin.zip.sha256",
    200
  ],
  [
    "https://services.gradle.org/distributions/gradle-1.0-milestone-7-all.zip.sha256",
    200
  ],
  [
    "https://services.gradle.org/distributions/gradle-1.0-milestone-7-bin.zip.sha256",
    200
  ],
  [
    "https://services.gradle.org/distributions/gradle-1.0-milestone-8-all.zip.sha256",
    200
  ],
  [
    "https://services.gradle.org/distributions/gradle-1.0-milestone-8-bin.zip.sha256",
    200
  ],
  [
    "https://services.gradle.org/distributions/gradle-1.0-milestone-8a-all.zip.sha256",
    200
  ],
  [
    "https://services.gradle.org/distributions/gradle-1.0-milestone-8a-bin.zip.sha256",
    200
  ],
  [
    "https://services.gradle.org/distributions/gradle-1.0-milestone-9-all.zip.sha256",
    200
  ],
  [
    "https://services.gradle.org/distributions/gradle-1.0-milestone-9-bin.zip.sha256",
    200
  ],
  [
    "https://services.gradle.org/distributions/gradle-1.0-rc-1-all.zip.sha256",
    200
  ],
  [
    "https://services.gradle.org/distributions/gradle-1.0-rc-1-bin.zip.sha256",
    200
  ],
  [
    "https://services.gradle.org/distributions/gradle-1.0-rc-2-all.zip.sha256",
    200
  ],
  [
    "https://services.gradle.org/distributions/gradle-1.0-rc-2-bin.zip.sha256",
    200
  ],
  [
    "https://services.gradle.org/distributions/gradle-1.0-rc-3-all.zip.sha256",
    200
  ],
  [
    "https://services.gradle.org/distributions/gradle-1.0-rc-3-bin.zip.sha256",
    200
  ],
  [
    "https://services.gradle.org/distributions/gradle-1.0-wrapper.jar.sha256",
    200
  ],
  [
    "https://services.gradle.org/distributions/gradle-1.1-all.zip.sha256",
    200
  ],
  [
    "https://services.gradle.org/distributions/gradle-1.1-bin.zip.sha256",
    200
  ],
  [
    "https://services.gradle.org/distributions/gradle-1.1-rc-1-all.zip.sha256",
    200
  ],
  [
    "https://services.gradle.org/distributions/gradle-1.1-rc-1-bin.zip.sha256",
    200
  ],
  [
    "https://services.gradle.org/distributions/gradle-1.1-rc-2-all.zip.sha256",
    200
  ],
  [
    "https://services.gradle.org/distributions/gradle-1.1-rc-2-bin.zip.sha256",
    200
  ],
  [
    "https://services.gradle.org/distributions/gradle-1.1-wrapper.jar.sha256",
    200
  ],
  [
    "https://services.gradle.org/distributions/gradle-1.10-all.zip.sha256",
    200
  ],
  [
    "https://services.gradle.org/distributions/gradle-1.10-bin.zip.sha256",
    200
  ],
  [
    "https://services.gradle.org/distributions/gradle-1.10-rc-1-all.zip.sha256",
    200
  ],
  [
    "https://services.gradle.org/distributions/gradle-1.10-rc-1-bin.zip.sha256",
    200
  ],
  [
    "https://services.gradle.org/distributions/gradle-1.10-rc-2-all.zip.sha256",
    200
  ],
  [
    "https://services.gradle.org/distributions/gradle-1.10-rc-2-bin.zip.sha256",
    200
  ],
  [
    "https://services.gradle.org/distributions/gradle-1.10-wrapper.jar.sha256",
    200
  ],
  [
    "https://services.gradle.org/distributions/gradle-1.11-all.zip.sha256",
    200
  ],
  [
    "https://services.gradle.org/distributions/gradle-1.11-bin.zip.sha256",
    200
  ],
  [
    "https://services.gradle.org/distributions/gradle-1.11-rc-1-all.zip.sha256",
    200
  ],
  [
    "https://services.gradle.org/distributions/gradle-1.11-rc-1-bin.zip.sha256",
    200
  ],
  [
    "https://services.gradle.org/distributions/gradle-1.11-wrapper.jar.sha256",
    200
  ],
  [
    "https://services.gradle.org/distributions/gradle-1.12-all.zip.sha256",
    200
  ],
  [
    "https://services.gradle.org/distributions/gradle-1.12-bin.zip.sha256",
    200
  ],
  [
    "https://services.gradle.org/distributions/gradle-1.12-rc-1-all.zip.sha256",
    200
  ],
  [
    "https://services.gradle.org/distributions/gradle-1.12-rc-1-bin.zip.sha256",
    200
  ],
  [
    "https://services.gradle.org/distributions/gradle-1.12-rc-2-all.zip.sha256",
    200
  ],
  [
    "https://services.gradle.org/distributions/gradle-1.12-rc-2-bin.zip.sha256",
    200
  ],
  [
    "https://services.gradle.org/distributions/gradle-1.12-wrapper.jar.sha256",
    200
  ],
  [
    "https://services.gradle.org/distributions/gradle-1.2-all.zip.sha256",
    200
  ],
  [
    "https://services.gradle.org/distributions/gradle-1.2-bin.zip.sha256",
    200
  ],
  [
    "https://services.gradle.org/distributions/gradle-1.2-rc-1-all.zip.sha256",
    200
  ],
  [
    "https://services.gradle.org/distributions/gradle-1.2-rc-1-bin.zip.sha256",
    200
  ],
  [
    "https://services.gradle.org/distributions/gradle-1.2-wrapper.jar.sha256",
    200
  ],
  [
    "https://services.gradle.org/distributions/gradle-1.3-all.zip.sha256",
    200
  ],
  [
    "https://services.gradle.org/distributions/gradle-1.3-bin.zip.sha256",
    200
  ],
  [
    "https://services.gradle.org/distributions/gradle-1.3-rc-1-all.zip.sha256",
    200
  ],
  [
    "https://services.gradle.org/distributions/gradle-1.3-rc-1-bin.zip.sha256",
    200
  ],
  [
    "https://services.gradle.org/distributions/gradle-1.3-rc-2-all.zip.sha256",
    200
  ],
  [
    "https://services.gradle.org/distributions/gradle-1.3-rc-2-bin.zip.sha256",
    200
  ],
  [
    "https://services.gradle.org/distributions/gradle-1.3-wrapper.jar.sha256",
    200
  ],
  [
    "https://services.gradle.org/distributions/gradle-1.4-all.zip.sha256",
    200
  ],
  [
    "https://services.gradle.org/distributions/gradle-1.4-bin.zip.sha256",
    200
  ],
  [
    "https://services.gradle.org/distributions/gradle-1.4-rc-1-all.zip.sha256",
    200
  ],
  [
    "https://services.gradle.org/distributions/gradle-1.4-rc-1-bin.zip.sha256",
    200
  ],
  [
    "https://services.gradle.org/distributions/gradle-1.4-rc-2-all.zip.sha256",
    200
  ],
  [
    "https://services.gradle.org/distributions/gradle-1.4-rc-2-bin.zip.sha256",
    200
  ],
  [
    "https://services.gradle.org/distributions/gradle-1.4-rc-3-all.zip.sha256",
    200
  ],
  [
    "https://services.gradle.org/distributions/gradle-1.4-rc-3-bin.zip.sha256",
    200
  ],
  [
    "https://services.gradle.org/distributions/gradle-1.4-wrapper.jar.sha256",
    200
  ],
  [
    "https://services.gradle.org/distributions/gradle-1.5-all.zip.sha256",
    200
  ],
  [
    "https://services.gradle.org/distributions/gradle-1.5-bin.zip.sha256",
    200
  ],
  [
    "https://services.gradle.org/distributions/gradle-1.5-rc-1-all.zip.sha256",
    200
  ],
  [
    "https://services.gradle.org/distributions/gradle-1.5-rc-1-bin.zip.sha256",
    200
  ],
  [
    "https://services.gradle.org/distributions/gradle-1.5-rc-2-all.zip.sha256",
    200
  ],
  [
    "https://services.gradle.org/distributions/gradle-1.5-rc-2-bin.zip.sha256",
    200
  ],
  [
    "https://services.gradle.org/distributions/gradle-1.5-rc-3-all.zip.sha256",
    200
  ],
  [
    "https://services.gradle.org/distributions/gradle-1.5-rc-3-bin.zip.sha256",
    200
  ],
  [
    "https://services.gradle.org/distributions/gradle-1.5-wrapper.jar.sha256",
    200
  ],
  [
    "https://services.gradle.org/distributions/gradle-1.6-all.zip.sha256",
    200
  ],
  [
    "https://services.gradle.org/distributions/gradle-1.6-bin.zip.sha256",
    200
  ],
  [
    "https://services.gradle.org/distributions/gradle-1.6-rc-1-all.zip.sha256",
    200
  ],
  [
    "https://services.gradle.org/distributions/gradle-1.6-rc-1-bin.zip.sha256",
    200
  ],
  [
    "https://services.gradle.org/distributions/gradle-1.6-wrapper.jar.sha256",
    200
  ],
  [
    "https://services.gradle.org/distributions/gradle-1.7-all.zip.sha256",
    200
  ],
  [
    "https://services.gradle.org/distributions/gradle-1.7-bin.zip.sha256",
    200
  ],
  [
    "https://services.gradle.org/distributions/gradle-1.7-rc-1-all.zip.sha256",
    200
  ],
  [
    "https://services.gradle.org/distributions/gradle-1.7-rc-1-bin.zip.sha256",
    200
  ],
  [
    "https://services.gradle.org/distributions/gradle-1.7-rc-2-all.zip.sha256",
    200
  ],
  [
    "https://services.gradle.org/distributions/gradle-1.7-rc-2-bin.zip.sha256",
    200
  ],
  [
    "https://services.gradle.org/distributions/gradle-1.7-wrapper.jar.sha256",
    200
  ],
  [
    "https://services.gradle.org/distributions/gradle-1.8-all.zip.sha256",
    200
  ],
  [
    "https://services.gradle.org/distributions/gradle-1.8-bin.zip.sha256",
    200
  ],
  [
    "https://services.gradle.org/distributions/gradle-1.8-rc-1-all.zip.sha256",
    200
  ],
  [
    "https://services.gradle.org/distributions/gradle-1.8-rc-1-bin.zip.sha256",
    200
  ],
  [
    "https://services.gradle.org/distributions/gradle-1.8-rc-2-all.zip.sha256",
    200
  ],
  [
    "https://services.gradle.org/distributions/gradle-1.8-rc-2-bin.zip.sha256",
    200
  ],
  [
    "https://services.gradle.org/distributions/gradle-1.8-wrapper.jar.sha256",
    200
  ],
  [
    "https://services.gradle.org/distributions/gradle-1.9-all.zip.sha256",
    200
  ],
  [
    "https://services.gradle.org/distributions/gradle-1.9-bin.zip.sha256",
    200
  ],
  [
    "https://services.gradle.org/distributions/gradle-1.9-rc-1-all.zip.sha256",
    200
  ],
  [
    "https://services.gradle.org/distributions/gradle-1.9-rc-1-bin.zip.sha256",
    200
  ],
  [
    "https://services.gradle.org/distributions/gradle-1.9-rc-2-all.zip.sha256",
    200
  ],
  [
    "https://services.gradle.org/distributions/gradle-1.9-rc-2-bin.zip.sha256",
    200
  ],
  [
    "https://services.gradle.org/distributions/gradle-1.9-rc-3-all.zip.sha256",
    200
  ],
  [
    "https://services.gradle.org/distributions/gradle-1.9-rc-3-bin.zip.sha256",
    200
  ],
  [
    "https://services.gradle.org/distributions/gradle-1.9-rc-4-all.zip.sha256",
    200
  ],
  [
    "https://services.gradle.org/distributions/gradle-1.9-rc-4-bin.zip.sha256",
    200
  ],
  [
    "https://services.gradle.org/distributions/gradle-1.9-wrapper.jar.sha256",
    200
  ],
  [
    "https://services.gradle.org/distributions/gradle-2.0-all.zip.sha256",
    200
  ],
  [
    "https://services.gradle.org/distributions/gradle-2.0-bin.zip.sha256",
    200
  ],
  [
    "https://services.gradle.org/distributions/gradle-2.0-rc-1-all.zip.sha256",
    200
  ],
  [
    "https://services.gradle.org/distributions/gradle-2.0-rc-1-bin.zip.sha256",
    200
  ],
  [
    "https://services.gradle.org/distributions/gradle-2.0-rc-2-all.zip.sha256",
    200
  ],
  [
    "https://services.gradle.org/distributions/gradle-2.0-rc-2-bin.zip.sha256",
    200
  ],
  [
    "https://services.gradle.org/distributions/gradle-2.0-wrapper.jar.sha256",
    200
  ],
  [
    "https://services.gradle.org/distributions/gradle-2.1-all.zip.sha256",
    200
  ],
  [
    "https://services.gradle.org/distributions/gradle-2.1-bin.zip.sha256",
    200
  ],
  [
    "https://services.gradle.org/distributions/gradle-2.1-rc-1-all.zip.sha256",
    200
  ],
  [
    "https://services.gradle.org/distributions/gradle-2.1-rc-1-bin.zip.sha256",
    200
  ],
  [
    "https://services.gradle.org/distributions/gradle-2.1-rc-2-all.zip.sha256",
    200
  ],
  [
    "https://services.gradle.org/distributions/gradle-2.1-rc-2-bin.zip.sha256",
    200
  ],
  [
    "https://services.gradle.org/distributions/gradle-2.1-rc-3-all.zip.sha256",
    200
  ],
  [
    "https://services.gradle.org/distributions/gradle-2.1-rc-3-bin.zip.sha256",
    200
  ],
  [
    "https://services.gradle.org/distributions/gradle-2.1-rc-4-all.zip.sha256",
    200
  ],
  [
    "https://services.gradle.org/distributions/gradle-2.1-rc-4-bin.zip.sha256",
    200
  ],
  [
    "https://services.gradle.org/distributions/gradle-2.1-wrapper.jar.sha256",
    200
  ],
  [
    "https://services.gradle.org/distributions/gradle-2.10-all.zip.sha256",
    200
  ],
  [
    "https://services.gradle.org/distributions/gradle-2.10-bin.zip.sha256",
    200
  ],
  [
    "https://services.gradle.org/distributions/gradle-2.10-rc-1-all.zip.sha256",
    200
  ],
  [
    "https://services.gradle.org/distributions/gradle-2.10-rc-1-bin.zip.sha256",
    200
  ],
  [
    "https://services.gradle.org/distributions/gradle-2.10-rc-2-all.zip.sha256",
    200
  ],
  [
    "https://services.gradle.org/distributions/gradle-2.10-rc-2-bin.zip.sha256",
    200
  ],
  [
    "https://services.gradle.org/distributions/gradle-2.10-wrapper.jar.sha256",
    200
  ],
  [
    "https://services.gradle.org/distributions/gradle-2.11-all.zip.sha256",
    200
  ],
  [
    "https://services.gradle.org/distributions/gradle-2.11-bin.zip.sha256",
    200
  ],
  [
    "https://services.gradle.org/distributions/gradle-2.11-rc-1-all.zip.sha256",
    200
  ],
  [
    "https://services.gradle.org/distributions/gradle-2.11-rc-1-bin.zip.sha256",
    200
  ],
  [
    "https://services.gradle.org/distributions/gradle-2.11-rc-2-all.zip.sha256",
    200
  ],
  [
    "https://services.gradle.org/distributions/gradle-2.11-rc-2-bin.zip.sha256",
    200
  ],
  [
    "https://services.gradle.org/distributions/gradle-2.11-rc-3-all.zip.sha256",
    200
  ],
  [
    "https://services.gradle.org/distributions/gradle-2.11-rc-3-bin.zip.sha256",
    200
  ],
  [
    "https://services.gradle.org/distributions/gradle-2.11-wrapper.jar.sha256",
    200
  ],
  [
    "https://services.gradle.org/distributions/gradle-2.12-all.zip.sha256",
    200
  ],
  [
    "https://services.gradle.org/distributions/gradle-2.12-bin.zip.sha256",
    200
  ],
  [
    "https://services.gradle.org/distributions/gradle-2.12-rc-1-all.zip.sha256",
    200
  ],
  [
    "https://services.gradle.org/distributions/gradle-2.12-rc-1-bin.zip.sha256",
    200
  ],
  [
    "https://services.gradle.org/distributions/gradle-2.12-wrapper.jar.sha256",
    200
  ],
  [
    "https://services.gradle.org/distributions/gradle-2.13-all.zip.sha256",
    200
  ],
  [
    "https://services.gradle.org/distributions/gradle-2.13-bin.zip.sha256",
    200
  ],
  [
    "https://services.gradle.org/distributions/gradle-2.13-rc-1-all.zip.sha256",
    200
  ],
  [
    "https://services.gradle.org/distributions/gradle-2.13-rc-1-bin.zip.sha256",
    200
  ],
  [
    "https://services.gradle.org/distributions/gradle-2.13-rc-2-all.zip.sha256",
    200
  ],
  [
    "https://services.gradle.org/distributions/gradle-2.13-rc-2-bin.zip.sha256",
    200
  ],
  [
    "https://services.gradle.org/distributions/gradle-2.13-wrapper.jar.sha256",
    200
  ],
  [
    "https://services.gradle.org/distributions/gradle-2.14-all.zip.sha256",
    200
  ],
  [
    "https://services.gradle.org/distributions/gradle-2.14-bin.zip.sha256",
    200
  ],
  [
    "https://services.gradle.org/distributions/gradle-2.14-rc-1-all.zip.sha256",
    200
  ],
  [
    "https://services.gradle.org/distributions/gradle-2.14-rc-1-bin.zip.sha256",
    200
  ],
  [
    "https://services.gradle.org/distributions/gradle-2.14-rc-2-all.zip.sha256",
    200
  ],
  [
    "https://services.gradle.org/distributions/gradle-2.14-rc-2-bin.zip.sha256",
    200
  ],
  [
    "https://services.gradle.org/distributions/gradle-2.14-rc-3-all.zip.sha256",
    200
  ],
  [
    "https://services.gradle.org/distributions/gradle-2.14-rc-3-bin.zip.sha256",
    200
  ],
  [
    "https://services.gradle.org/distributions/gradle-2.14-rc-4-all.zip.sha256",
    200
  ],
  [
    "https://services.gradle.org/distributions/gradle-2.14-rc-4-bin.zip.sha256",
    200
  ],
  [
    "https://services.gradle.org/distributions/gradle-2.14-rc-5-all.zip.sha256",
    200
  ],
  [
    "https://services.gradle.org/distributions/gradle-2.14-rc-5-bin.zip.sha256",
    200
  ],
  [
    "https://services.gradle.org/distributions/gradle-2.14-rc-6-all.zip.sha256",
    200
  ],
  [
    "https://services.gradle.org/distributions/gradle-2.14-rc-6-bin.zip.sha256",
    200
  ],
  [
    "https://services.gradle.org/distributions/gradle-2.14-wrapper.jar.sha256",
    200
  ],
  [
    "https://services.gradle.org/distributions/gradle-2.14.1-all.zip.sha256",
    200
  ],
  [
    "https://services.gradle.org/distributions/gradle-2.14.1-bin.zip.sha256",
    200
  ],
  [
    "https://services.gradle.org/distributions/gradle-2.14.1-rc-1-all.zip.sha256",
    200
  ],
  [
    "https://services.gradle.org/distributions/gradle-2.14.1-rc-1-bin.zip.sha256",
    200
  ],
  [
    "https://services.gradle.org/distributions/gradle-2.14.1-rc-2-all.zip.sha256",
    200
  ],
  [
    "https://services.gradle.org/distributions/gradle-2.14.1-rc-2-bin.zip.sha256",
    200
  ],
  [
    "https://services.gradle.org/distributions/gradle-2.14.1-wrapper.jar.sha256",
    200
  ],
  [
    "https://services.gradle.org/distributions/gradle-2.2-all.zip.sha256",
    200
  ],
  [
    "https://services.gradle.org/distributions/gradle-2.2-bin.zip.sha256",
    200
  ],
  [
    "https://services.gradle.org/distributions/gradle-2.2-rc-1-all.zip.sha256",
    200
  ],
  [
    "https://services.gradle.org/distributions/gradle-2.2-rc-1-bin.zip.sha256",
    200
  ],
  [
    "https://services.gradle.org/distributions/gradle-2.2-rc-2-all.zip.sha256",
    200
  ],
  [
    "https://services.gradle.org/distributions/gradle-2.2-rc-2-bin.zip.sha256",
    200
  ],
  [
    "https://services.gradle.org/distributions/gradle-2.2-wrapper.jar.sha256",
    200
  ],
  [
    "https://services.gradle.org/distributions/gradle-2.2.1-all.zip.sha256",
    200
  ],
  [
    "https://services.gradle.org/distributions/gradle-2.2.1-bin.zip.sha256",
    200
  ],
  [
    "https://services.gradle.org/distributions/gradle-2.2.1-rc-1-all.zip.sha256",
    200
  ],
  [
    "https://services.gradle.org/distributions/gradle-2.2.1-rc-1-bin.zip.sha256",
    200
  ],
  [
    "https://services.gradle.org/distributions/gradle-2.2.1-wrapper.jar.sha256",
    200
  ],
  [
    "https://services.gradle.org/distributions/gradle-2.3-all.zip.sha256",
    200
  ],
  [
    "https://services.gradle.org/distributions/gradle-2.3-bin.zip.sha256",
    200
  ],
  [
    "https://services.gradle.org/distributions/gradle-2.3-rc-1-all.zip.sha256",
    200
  ],
  [
    "https://services.gradle.org/distributions/gradle-2.3-rc-1-bin.zip.sha256",
    200
  ],
  [
    "https://services.gradle.org/distributions/gradle-2.3-rc-2-all.zip.sha256",
    200
  ],
  [
    "https://services.gradle.org/distributions/gradle-2.3-rc-2-bin.zip.sha256",
    200
  ],
  [
    "https://services.gradle.org/distributions/gradle-2.3-rc-3-all.zip.sha256",
    200
  ],
  [
    "https://services.gradle.org/distributions/gradle-2.3-rc-3-bin.zip.sha256",
    200
  ],
  [
    "https://services.gradle.org/distributions/gradle-2.3-rc-4-all.zip.sha256",
    200
  ],
  [
    "https://services.gradle.org/distributions/gradle-2.3-rc-4-bin.zip.sha256",
    200
  ],
  [
    "https://services.gradle.org/distributions/gradle-2.3-wrapper.jar.sha256",
    200
  ],
  [
    "https://services.gradle.org/distributions/gradle-2.4-all.zip.sha256",
    200
  ],
  [
    "https://services.gradle.org/distributions/gradle-2.4-bin.zip.sha256",
    200
  ],
  [
    "https://services.gradle.org/distributions/gradle-2.4-rc-1-all.zip.sha256",
    200
  ],
  [
    "https://services.gradle.org/distributions/gradle-2.4-rc-1-bin.zip.sha256",
    200
  ],
  [
    "https://services.gradle.org/distributions/gradle-2.4-rc-2-all.zip.sha256",
    200
  ],
  [
    "https://services.gradle.org/distributions/gradle-2.4-rc-2-bin.zip.sha256",
    200
  ],
  [
    "https://services.gradle.org/distributions/gradle-2.4-wrapper.jar.sha256",
    200
  ],
  [
    "https://services.gradle.org/distributions/gradle-2.5-all.zip.sha256",
    200
  ],
  [
    "https://services.gradle.org/distributions/gradle-2.5-bin.zip.sha256",
    200
  ],
  [
    "https://services.gradle.org/distributions/gradle-2.5-rc-1-all.zip.sha256",
    200
  ],
  [
    "https://services.gradle.org/distributions/gradle-2.5-rc-1-bin.zip.sha256",
    200
  ],
  [
    "https://services.gradle.org/distributions/gradle-2.5-rc-2-all.zip.sha256",
    200
  ],
  [
    "https://services.gradle.org/distributions/gradle-2.5-rc-2-bin.zip.sha256",
    200
  ],
  [
    "https://services.gradle.org/distributions/gradle-2.5-wrapper.jar.sha256",
    200
  ],
  [
    "https://services.gradle.org/distributions/gradle-2.6-all.zip.sha256",
    200
  ],
  [
    "https://services.gradle.org/distributions/gradle-2.6-bin.zip.sha256",
    200
  ],
  [
    "https://services.gradle.org/distributions/gradle-2.6-rc-1-all.zip.sha256",
    200
  ],
  [
    "https://services.gradle.org/distributions/gradle-2.6-rc-1-bin.zip.sha256",
    200
  ],
  [
    "https://services.gradle.org/distributions/gradle-2.6-rc-2-all.zip.sha256",
    200
  ],
  [
    "https://services.gradle.org/distributions/gradle-2.6-rc-2-bin.zip.sha256",
    200
  ],
  [
    "https://services.gradle.org/distributions/gradle-2.6-wrapper.jar.sha256",
    200
  ],
  [
    "https://services.gradle.org/distributions/gradle-2.7-all.zip.sha256",
    200
  ],
  [
    "https://services.gradle.org/distributions/gradle-2.7-bin.zip.sha256",
    200
  ],
  [
    "https://services.gradle.org/distributions/gradle-2.7-rc-1-all.zip.sha256",
    200
  ],
  [
    "https://services.gradle.org/distributions/gradle-2.7-rc-1-bin.zip.sha256",
    200
  ],
  [
    "https://services.gradle.org/distributions/gradle-2.7-rc-2-all.zip.sha256",
    200
  ],
  [
    "https://services.gradle.org/distributions/gradle-2.7-rc-2-bin.zip.sha256",
    200
  ],
  [
    "https://services.gradle.org/distributions/gradle-2.7-wrapper.jar.sha256",
    200
  ],
  [
    "https://services.gradle.org/distributions/gradle-2.8-all.zip.sha256",
    200
  ],
  [
    "https://services.gradle.org/distributions/gradle-2.8-bin.zip.sha256",
    200
  ],
  [
    "https://services.gradle.org/distributions/gradle-2.8-rc-1-all.zip.sha256",
    200
  ],
  [
    "https://services.gradle.org/distributions/gradle-2.8-rc-1-bin.zip.sha256",
    200
  ],
  [
    "https://services.gradle.org/distributions/gradle-2.8-rc-2-all.zip.sha256",
    200
  ],
  [
    "https://services.gradle.org/distributions/gradle-2.8-rc-2-bin.zip.sha256",
    200
  ],
  [
    "https://services.gradle.org/distributions/gradle-2.8-wrapper.jar.sha256",
    200
  ],
  [
    "https://services.gradle.org/distributions/gradle-2.9-all.zip.sha256",
    200
  ],
  [
    "https://services.gradle.org/distributions/gradle-2.9-bin.zip.sha256",
    200
  ],
  [
    "https://services.gradle.org/distributions/gradle-2.9-rc-1-all.zip.sha256",
    200
  ],
  [
    "https://services.gradle.org/distributions/gradle-2.9-rc-1-bin.zip.sha256",
    200
  ],
  [
    "https://services.gradle.org/distributions/gradle-2.9-wrapper.jar.sha256",
    200
  ],
  [
    "https://services.gradle.org/distributions/gradle-3.0-all.zip.sha256",
    200
  ],
  [
    "https://services.gradle.org/distributions/gradle-3.0-bin.zip.sha256",
    200
  ],
  [
    "https://services.gradle.org/distributions/gradle-3.0-milestone-1-all.zip.sha256",
    200
  ],
  [
    "https://services.gradle.org/distributions/gradle-3.0-milestone-1-bin.zip.sha256",
    200
  ],
  [
    "https://services.gradle.org/distributions/gradle-3.0-milestone-2-all.zip.sha256",
    200
  ],
  [
    "https://services.gradle.org/distributions/gradle-3.0-milestone-2-bin.zip.sha256",
    200
  ],
  [
    "https://services.gradle.org/distributions/gradle-3.0-rc-1-all.zip.sha256",
    200
  ],
  [
    "https://services.gradle.org/distributions/gradle-3.0-rc-1-bin.zip.sha256",
    200
  ],
  [
    "https://services.gradle.org/distributions/gradle-3.0-rc-2-all.zip.sha256",
    200
  ],
  [
    "https://services.gradle.org/distributions/gradle-3.0-rc-2-bin.zip.sha256",
    200
  ],
  [
    "https://services.gradle.org/distributions/gradle-3.0-wrapper.jar.sha256",
    200
  ],
  [
    "https://services.gradle.org/distributions/gradle-3.1-all.zip.sha256",
    200
  ],
  [
    "https://services.gradle.org/distributions/gradle-3.1-bin.zip.sha256",
    200
  ],
  [
    "https://services.gradle.org/distributions/gradle-3.1-rc-1-all.zip.sha256",
    200
  ],
  [
    "https://services.gradle.org/distributions/gradle-3.1-rc-1-bin.zip.sha256",
    200
  ],
  [
    "https://services.gradle.org/distributions/gradle-3.1-wrapper.jar.sha256",
    200
  ],
  [
    "https://services.gradle.org/distributions/gradle-3.2-all.zip.sha256",
    200
  ],
  [
    "https://services.gradle.org/distributions/gradle-3.2-bin.zip.sha256",
    200
  ],
  [
    "https://services.gradle.org/distributions/gradle-3.2-rc-1-all.zip.sha256",
    200
  ],
  [
    "https://services.gradle.org/distributions/gradle-3.2-rc-1-bin.zip.sha256",
    200
  ],
  [
    "https://services.gradle.org/distributions/gradle-3.2-rc-2-all.zip.sha256",
    200
  ],
  [
    "https://services.gradle.org/distributions/gradle-3.2-rc-2-bin.zip.sha256",
    200
  ],
  [
    "https://services.gradle.org/distributions/gradle-3.2-rc-3-all.zip.sha256",
    200
  ],
  [
    "https://services.gradle.org/distributions/gradle-3.2-rc-3-bin.zip.sha256",
    200
  ],
  [
    "https://services.gradle.org/distributions/gradle-3.2-wrapper.jar.sha256",
    200
  ],
  [
    "https://services.gradle.org/distributions/gradle-3.2.1-all.zip.sha256",
    200
  ],
  [
    "https://services.gradle.org/distributions/gradle-3.2.1-bin.zip.sha256",
    200
  ],
  [
    "https://services.gradle.org/distributions/gradle-3.2.1-wrapper.jar.sha256",
    200
  ],
  [
    "https://services.gradle.org/distributions/gradle-3.3-all.zip.sha256",
    200
  ],
  [
    "https://services.gradle.org/distributions/gradle-3.3-bin.zip.sha256",
    200
  ],
  [
    "https://services.gradle.org/distributions/gradle-3.3-rc-1-all.zip.sha256",
    200
  ],
  [
    "https://services.gradle.org/distributions/gradle-3.3-rc-1-bin.zip.sha256",
    200
  ],
  [
    "https://services.gradle.org/distributions/gradle-3.4-all.zip.sha256",
    200
  ],
  [
    "https://services.gradle.org/distributions/gradle-3.4-bin.zip.sha256",
    200
  ],
  [
    "https://services.gradle.org/distributions/gradle-3.4-rc-1-all.zip.sha256",
    200
  ],
  [
    "https://services.gradle.org/distributions/gradle-3.4-rc-1-bin.zip.sha256",
    200
  ],
  [
    "https://services.gradle.org/distributions/gradle-3.4-rc-2-all.zip.sha256",
    200
  ],
  [
    "https://services.gradle.org/distributions/gradle-3.4-rc-2-bin.zip.sha256",
    200
  ],
  [
    "https://services.gradle.org/distributions/gradle-3.4-rc-3-all.zip.sha256",
    200
  ],
  [
    "https://services.gradle.org/distributions/gradle-3.4-rc-3-bin.zip.sha256",
    200
  ],
  [
    "https://services.gradle.org/distributions/gradle-3.4.1-all.zip.sha256",
    200
  ],
  [
    "https://services.gradle.org/distributions/gradle-3.4.1-bin.zip.sha256",
    200
  ],
  [
    "https://services.gradle.org/distributions/gradle-3.5-all.zip.sha256",
    200
  ],
  [
    "https://services.gradle.org/distributions/gradle-3.5-bin.zip.sha256",
    200
  ],
  [
    "https://services.gradle.org/distributions/gradle-3.5-rc-1-all.zip.sha256",
    200
  ],
  [
    "https://services.gradle.org/distributions/gradle-3.5-rc-1-bin.zip.sha256",
    200
  ],
  [
    "https://services.gradle.org/distributions/gradle-3.5-rc-2-all.zip.sha256",
    200
  ],
  [
    "https://services.gradle.org/distributions/gradle-3.5-rc-2-bin.zip.sha256",
    200
  ],
  [
    "https://services.gradle.org/distributions/gradle-3.5-rc-3-all.zip.sha256",
    200
  ],
  [
    "https://services.gradle.org/distributions/gradle-3.5-rc-3-bin.zip.sha256",
    200
  ],
  [
    "https://services.gradle.org/distributions/gradle-3.5.1-all.zip.sha256",
    200
  ],
  [
    "https://services.gradle.org/distributions/gradle-3.5.1-bin.zip.sha256",
    200
  ],
  [
    "https://services.gradle.org/distributions/gradle-4.0-all.zip.sha256",
    200
  ],
  [
    "https://services.gradle.org/distributions/gradle-4.0-bin.zip.sha256",
    200
  ],
  [
    "https://services.gradle.org/distributions/gradle-4.0-milestone-1-all.zip.sha256",
    200
  ],
  [
    "https://services.gradle.org/distributions/gradle-4.0-milestone-1-bin.zip.sha256",
    200
  ],
  [
    "https://services.gradle.org/distributions/gradle-4.0-milestone-2-all.zip.sha256",
    200
  ],
  [
    "https://services.gradle.org/distributions/gradle-4.0-milestone-2-bin.zip.sha256",
    200
  ],
  [
    "https://services.gradle.org/distributions/gradle-4.0-rc-1-all.zip.sha256",
    200
  ],
  [
    "https://services.gradle.org/distributions/gradle-4.0-rc-1-bin.zip.sha256",
    200
  ],
  [
    "https://services.gradle.org/distributions/gradle-4.0-rc-2-all.zip.sha256",
    200
  ],
  [
    "https://services.gradle.org/distributions/gradle-4.0-rc-2-bin.zip.sha256",
    200
  ],
  [
    "https://services.gradle.org/distributions/gradle-4.0-rc-3-all.zip.sha256",
    200
  ],
  [
    "https://services.gradle.org/distributions/gradle-4.0-rc-3-bin.zip.sha256",
    200
  ],
  [
    "https://services.gradle.org/distributions/gradle-4.0.1-all.zip.sha256",
    200
  ],
  [
    "https://services.gradle.org/distributions/gradle-4.0.1-bin.zip.sha256",
    200
  ],
  [
    "https://services.gradle.org/distributions/gradle-4.0.2-all.zip.sha256",
    200
  ],
  [
    "https://services.gradle.org/distributions/gradle-4.0.2-bin.zip.sha256",
    200
  ],
  [
    "https://services.gradle.org/distributions/gradle-4.1-all.zip.sha256",
    200
  ],
  [
    "https://services.gradle.org/distributions/gradle-4.1-bin.zip.sha256",
    200
  ],
  [
    "https://services.gradle.org/distributions/gradle-4.1-milestone-1-all.zip.sha256",
    200
  ],
  [
    "https://services.gradle.org/distributions/gradle-4.1-milestone-1-bin.zip.sha256",
    200
  ],
  [
    "https://services.gradle.org/distributions/gradle-4.1-rc-1-all.zip.sha256",
    200
  ],
  [
    "https://services.gradle.org/distributions/gradle-4.1-rc-1-bin.zip.sha256",
    200
  ],
  [
    "https://services.gradle.org/distributions/gradle-4.1-rc-2-all.zip.sha256",
    200
  ],
  [
    "https://services.gradle.org/distributions/gradle-4.1-rc-2-bin.zip.sha256",
    200
  ],
  [
    "https://services.gradle.org/distributions/gradle-4.1-wrapper.jar.sha256",
    200
  ],
  [
    "https://services.gradle.org/distributions/gradle-4.10-all.zip.sha256",
    200
  ],
  [
    "https://services.gradle.org/distributions/gradle-4.10-bin.zip.sha256",
    200
  ],
  [
    "https://services.gradle.org/distributions/gradle-4.10-rc-1-all.zip.sha256",
    200
  ],
  [
    "https://services.gradle.org/distributions/gradle-4.10-rc-1-bin.zip.sha256",
    200
  ],
  [
    "https://services.gradle.org/distributions/gradle-4.10-rc-2-all.zip.sha256",
    200
  ],
  [
    "https://services.gradle.org/distributions/gradle-4.10-rc-2-bin.zip.sha256",
    200
  ],
  [
    "https://services.gradle.org/distributions/gradle-4.10-rc-3-all.zip.sha256",
    200
  ],
  [
    "https://services.gradle.org/distributions/gradle-4.10-rc-3-bin.zip.sha256",
    200
  ],
  [
    "https://services.gradle.org/distributions/gradle-4.10-wrapper.jar.sha256",
    200
  ],
  [
    "https://services.gradle.org/distributions/gradle-4.10.1-all.zip.sha256",
    200
  ],
  [
    "https://services.gradle.org/distributions/gradle-4.10.1-bin.zip.sha256",
    200
  ],
  [
    "https://services.gradle.org/distributions/gradle-4.10.1-wrapper.jar.sha256",
    200
  ],
  [
    "https://services.gradle.org/distributions/gradle-4.10.2-all.zip.sha256",
    200
  ],
  [
    "https://services.gradle.org/distributions/gradle-4.10.2-bin.zip.sha256",
    200
  ],
  [
    "https://services.gradle.org/distributions/gradle-4.10.2-wrapper.jar.sha256",
    200
  ],
  [
    "https://services.gradle.org/distributions/gradle-4.10.3-all.zip.sha256",
    200
  ],
  [
    "https://services.gradle.org/distributions/gradle-4.10.3-bin.zip.sha256",
    200
  ],
  [
    "https://services.gradle.org/distributions/gradle-4.10.3-wrapper.jar.sha256",
    200
  ],
  [
    "https://services.gradle.org/distributions/gradle-4.2-all.zip.sha256",
    200
  ],
  [
    "https://services.gradle.org/distributions/gradle-4.2-bin.zip.sha256",
    200
  ],
  [
    "https://services.gradle.org/distributions/gradle-4.2-rc-1-all.zip.sha256",
    200
  ],
  [
    "https://services.gradle.org/distributions/gradle-4.2-rc-1-bin.zip.sha256",
    200
  ],
  [
    "https://services.gradle.org/distributions/gradle-4.2-rc-2-all.zip.sha256",
    200
  ],
  [
    "https://services.gradle.org/distributions/gradle-4.2-rc-2-bin.zip.sha256",
    200
  ],
  [
    "https://services.gradle.org/distributions/gradle-4.2-wrapper.jar.sha256",
    200
  ],
  [
    "https://services.gradle.org/distributions/gradle-4.2.1-all.zip.sha256",
    200
  ],
  [
    "https://services.gradle.org/distributions/gradle-4.2.1-bin.zip.sha256",
    200
  ],
  [
    "https://services.gradle.org/distributions/gradle-4.2.1-wrapper.jar.sha256",
    200
  ],
  [
    "https://services.gradle.org/distributions/gradle-4.3-all.zip.sha256",
    200
  ],
  [
    "https://services.gradle.org/distributions/gradle-4.3-bin.zip.sha256",
    200
  ],
  [
    "https://services.gradle.org/distributions/gradle-4.3-rc-1-all.zip.sha256",
    200
  ],
  [
    "https://services.gradle.org/distributions/gradle-4.3-rc-1-bin.zip.sha256",
    200
  ],
  [
    "https://services.gradle.org/distributions/gradle-4.3-rc-2-all.zip.sha256",
    200
  ],
  [
    "https://services.gradle.org/distributions/gradle-4.3-rc-2-bin.zip.sha256",
    200
  ],
  [
    "https://services.gradle.org/distributions/gradle-4.3-rc-3-all.zip.sha256",
    200
  ],
  [
    "https://services.gradle.org/distributions/gradle-4.3-rc-3-bin.zip.sha256",
    200
  ],
  [
    "https://services.gradle.org/distributions/gradle-4.3-rc-4-all.zip.sha256",
    200
  ],
  [
    "https://services.gradle.org/distributions/gradle-4.3-rc-4-bin.zip.sha256",
    200
  ],
  [
    "https://services.gradle.org/distributions/gradle-4.3-wrapper.jar.sha256",
    200
  ],
  [
    "https://services.gradle.org/distributions/gradle-4.3.1-all.zip.sha256",
    200
  ],
  [
    "https://services.gradle.org/distributions/gradle-4.3.1-bin.zip.sha256",
    200
  ],
  [
    "https://services.gradle.org/distributions/gradle-4.3.1-wrapper.jar.sha256",
    200
  ],
  [
    "https://services.gradle.org/distributions/gradle-4.4-all.zip.sha256",
    200
  ],
  [
    "https://services.gradle.org/distributions/gradle-4.4-bin.zip.sha256",
    200
  ],
  [
    "https://services.gradle.org/distributions/gradle-4.4-rc-1-all.zip.sha256",
    200
  ],
  [
    "https://services.gradle.org/distributions/gradle-4.4-rc-1-bin.zip.sha256",
    200
  ],
  [
    "https://services.gradle.org/distributions/gradle-4.4-rc-2-all.zip.sha256",
    200
  ],
  [
    "https://services.gradle.org/distributions/gradle-4.4-rc-2-bin.zip.sha256",
    200
  ],
  [
    "https://services.gradle.org/distributions/gradle-4.4-rc-3-all.zip.sha256",
    200
  ],
  [
    "https://services.gradle.org/distributions/gradle-4.4-rc-3-bin.zip.sha256",
    200
  ],
  [
    "https://services.gradle.org/distributions/gradle-4.4-rc-4-all.zip.sha256",
    200
  ],
  [
    "https://services.gradle.org/distributions/gradle-4.4-rc-4-bin.zip.sha256",
    200
  ],
  [
    "https://services.gradle.org/distributions/gradle-4.4-rc-5-all.zip.sha256",
    200
  ],
  [
    "https://services.gradle.org/distributions/gradle-4.4-rc-5-bin.zip.sha256",
    200
  ],
  [
    "https://services.gradle.org/distributions/gradle-4.4-rc-6-all.zip.sha256",
    200
  ],
  [
    "https://services.gradle.org/distributions/gradle-4.4-rc-6-bin.zip.sha256",
    200
  ],
  [
    "https://services.gradle.org/distributions/gradle-4.4-wrapper.jar.sha256",
    200
  ],
  [
    "https://services.gradle.org/distributions/gradle-4.4.1-all.zip.sha256",
    200
  ],
  [
    "https://services.gradle.org/distributions/gradle-4.4.1-bin.zip.sha256",
    200
  ],
  [
    "https://services.gradle.org/distributions/gradle-4.4.1-wrapper.jar.sha256",
    200
  ],
  [
    "https://services.gradle.org/distributions/gradle-4.5-all.zip.sha256",
    200
  ],
  [
    "https://services.gradle.org/distributions/gradle-4.5-bin.zip.sha256",
    200
  ],
  [
    "https://services.gradle.org/distributions/gradle-4.5-rc-1-all.zip.sha256",
    200
  ],
  [
    "https://services.gradle.org/distributions/gradle-4.5-rc-1-bin.zip.sha256",
    200
  ],
  [
    "https://services.gradle.org/distributions/gradle-4.5-rc-2-all.zip.sha256",
    200
  ],
  [
    "https://services.gradle.org/distributions/gradle-4.5-rc-2-bin.zip.sha256",
    200
  ],
  [
    "https://services.gradle.org/distributions/gradle-4.5-wrapper.jar.sha256",
    200
  ],
  [
    "https://services.gradle.org/distributions/gradle-4.5.1-all.zip.sha256",
    200
  ],
  [
    "https://services.gradle.org/distributions/gradle-4.5.1-bin.zip.sha256",
    200
  ],
  [
    "https://services.gradle.org/distributions/gradle-4.5.1-wrapper.jar.sha256",
    200
  ],
  [
    "https://services.gradle.org/distributions/gradle-4.6-all.zip.sha256",
    200
  ],
  [
    "https://services.gradle.org/distributions/gradle-4.6-bin.zip.sha256",
    200
  ],
  [
    "https://services.gradle.org/distributions/gradle-4.6-rc-1-all.zip.sha256",
    200
  ],
  [
    "https://services.gradle.org/distributions/gradle-4.6-rc-1-bin.zip.sha256",
    200
  ],
  [
    "https://services.gradle.org/distributions/gradle-4.6-rc-2-all.zip.sha256",
    200
  ],
  [
    "https://services.gradle.org/distributions/gradle-4.6-rc-2-bin.zip.sha256",
    200
  ],
  [
    "https://services.gradle.org/distributions/gradle-4.6-wrapper.jar.sha256",
    200
  ],
  [
    "https://services.gradle.org/distributions/gradle-4.7-all.zip.sha256",
    200
  ],
  [
    "https://services.gradle.org/distributions/gradle-4.7-bin.zip.sha256",
    200
  ],
  [
    "https://services.gradle.org/distributions/gradle-4.7-rc-1-all.zip.sha256",
    200
  ],
  [
    "https://services.gradle.org/distributions/gradle-4.7-rc-1-bin.zip.sha256",
    200
  ],
  [
    "https://services.gradle.org/distributions/gradle-4.7-rc-2-all.zip.sha256",
    200
  ],
  [
    "https://services.gradle.org/distributions/gradle-4.7-rc-2-bin.zip.sha256",
    200
  ],
  [
    "https://services.gradle.org/distributions/gradle-4.7-wrapper.jar.sha256",
    200
  ],
  [
    "https://services.gradle.org/distributions/gradle-4.8-all.zip.sha256",
    200
  ],
  [
    "https://services.gradle.org/distributions/gradle-4.8-bin.zip.sha256",
    200
  ],
  [
    "https://services.gradle.org/distributions/gradle-4.8-rc-1-all.zip.sha256",
    200
  ],
  [
    "https://services.gradle.org/distributions/gradle-4.8-rc-1-bin.zip.sha256",
    200
  ],
  [
    "https://services.gradle.org/distributions/gradle-4.8-rc-2-all.zip.sha256",
    200
  ],
  [
    "https://services.gradle.org/distributions/gradle-4.8-rc-2-bin.zip.sha256",
    200
  ],
  [
    "https://services.gradle.org/distributions/gradle-4.8-rc-3-all.zip.sha256",
    200
  ],
  [
    "https://services.gradle.org/distributions/gradle-4.8-rc-3-bin.zip.sha256",
    200
  ],
  [
    "https://services.gradle.org/distributions/gradle-4.8-wrapper.jar.sha256",
    200
  ],
  [
    "https://services.gradle.org/distributions/gradle-4.8.1-all.zip.sha256",
    200
  ],
  [
    "https://services.gradle.org/distributions/gradle-4.8.1-bin.zip.sha256",
    200
  ],
  [
    "https://services.gradle.org/distributions/gradle-4.8.1-wrapper.jar.sha256",
    200
  ],
  [
    "https://services.gradle.org/distributions/gradle-4.9-all.zip.sha256",
    200
  ],
  [
    "https://services.gradle.org/distributions/gradle-4.9-bin.zip.sha256",
    200
  ],
  [
    "https://services.gradle.org/distributions/gradle-4.9-rc-1-all.zip.sha256",
    200
  ],
  [
    "https://services.gradle.org/distributions/gradle-4.9-rc-1-bin.zip.sha256",
    200
  ],
  [
    "https://services.gradle.org/distributions/gradle-4.9-rc-2-all.zip.sha256",
    200
  ],
  [
    "https://services.gradle.org/distributions/gradle-4.9-rc-2-bin.zip.sha256",
    200
  ],
  [
    "https://services.gradle.org/distributions/gradle-4.9-wrapper.jar.sha256",
    200
  ],
  [
    "https://services.gradle.org/distributions/gradle-5.0-all.zip.sha256",
    200
  ],
  [
    "https://services.gradle.org/distributions/gradle-5.0-bin.zip.sha256",
    200
  ],
  [
    "https://services.gradle.org/distributions/gradle-5.0-milestone-1-all.zip.sha256",
    200
  ],
  [
    "https://services.gradle.org/distributions/gradle-5.0-milestone-1-bin.zip.sha256",
    200
  ],
  [
    "https://services.gradle.org/distributions/gradle-5.0-rc-1-all.zip.sha256",
    200
  ],
  [
    "https://services.gradle.org/distributions/gradle-5.0-rc-1-bin.zip.sha256",
    200
  ],
  [
    "https://services.gradle.org/distributions/gradle-5.0-rc-2-all.zip.sha256",
    200
  ],
  [
    "https://services.gradle.org/distributions/gradle-5.0-rc-2-bin.zip.sha256",
    200
  ],
  [
    "https://services.gradle.org/distributions/gradle-5.0-rc-3-all.zip.sha256",
    200
  ],
  [
    "https://services.gradle.org/distributions/gradle-5.0-rc-3-bin.zip.sha256",
    200
  ],
  [
    "https://services.gradle.org/distributions/gradle-5.0-rc-4-all.zip.sha256",
    200
  ],
  [
    "https://services.gradle.org/distributions/gradle-5.0-rc-4-bin.zip.sha256",
    200
  ],
  [
    "https://services.gradle.org/distributions/gradle-5.0-rc-5-all.zip.sha256",
    200
  ],
  [
    "https://services.gradle.org/distributions/gradle-5.0-rc-5-bin.zip.sha256",
    200
  ],
  [
    "https://services.gradle.org/distributions/gradle-5.0-wrapper.jar.sha256",
    200
  ],
  [
    "https://services.gradle.org/distributions/gradle-5.1-all.zip.sha256",
    200
  ],
  [
    "https://services.gradle.org/distributions/gradle-5.1-bin.zip.sha256",
    200
  ],
  [
    "https://services.gradle.org/distributions/gradle-5.1-milestone-1-all.zip.sha256",
    200
  ],
  [
    "https://services.gradle.org/distributions/gradle-5.1-milestone-1-bin.zip.sha256",
    200
  ],
  [
    "https://services.gradle.org/distributions/gradle-5.1-milestone-1-wrapper.jar.sha256",
    200
  ],
  [
    "https://services.gradle.org/distributions/gradle-5.1-rc-1-all.zip.sha256",
    200
  ],
  [
    "https://services.gradle.org/distributions/gradle-5.1-rc-1-bin.zip.sha256",
    200
  ],
  [
    "https://services.gradle.org/distributions/gradle-5.1-rc-1-wrapper.jar.sha256",
    200
  ],
  [
    "https://services.gradle.org/distributions/gradle-5.1-rc-2-all.zip.sha256",
    200
  ],
  [
    "https://services.gradle.org/distributions/gradle-5.1-rc-2-bin.zip.sha256",
    200
  ],
  [
    "https://services.gradle.org/distributions/gradle-5.1-rc-2-wrapper.jar.sha256",
    200
  ],
  [
    "https://services.gradle.org/distributions/gradle-5.1-rc-3-all.zip.sha256",
    200
  ],
  [
    "https://services.gradle.org/distributions/gradle-5.1-rc-3-bin.zip.sha256",
    200
  ],
  [
    "https://services.gradle.org/distributions/gradle-5.1-rc-3-wrapper.jar.sha256",
    200
  ],
  [
    "https://services.gradle.org/distributions/gradle-5.1-wrapper.jar.sha256",
    200
  ],
  [
    "https://services.gradle.org/distributions/gradle-5.1.1-all.zip.sha256",
    200
  ],
  [
    "https://services.gradle.org/distributions/gradle-5.1.1-bin.zip.sha256",
    200
  ],
  [
    "https://services.gradle.org/distributions/gradle-5.1.1-wrapper.jar.sha256",
    200
  ],
  [
    "https://services.gradle.org/distributions/gradle-5.2-all.zip.sha256",
    200
  ],
  [
    "https://services.gradle.org/distributions/gradle-5.2-bin.zip.sha256",
    200
  ],
  [
    "https://services.gradle.org/distributions/gradle-5.2-rc-1-all.zip.sha256",
    200
  ],
  [
    "https://services.gradle.org/distributions/gradle-5.2-rc-1-bin.zip.sha256",
    200
  ],
  [
    "https://services.gradle.org/distributions/gradle-5.2-rc-1-wrapper.jar.sha256",
    200
  ],
  [
    "https://services.gradle.org/distributions/gradle-5.2-wrapper.jar.sha256",
    200
  ],
  [
    "https://services.gradle.org/distributions/gradle-5.2.1-all.zip.sha256",
    200
  ],
  [
    "https://services.gradle.org/distributions/gradle-5.2.1-bin.zip.sha256",
    200
  ],
  [
    "https://services.gradle.org/distributions/gradle-5.2.1-wrapper.jar.sha256",
    200
  ],
  [
    "https://services.gradle.org/distributions/gradle-5.3-all.zip.sha256",
    200
  ],
  [
    "https://services.gradle.org/distributions/gradle-5.3-bin.zip.sha256",
    200
  ],
  [
    "https://services.gradle.org/distributions/gradle-5.3-rc-1-all.zip.sha256",
    200
  ],
  [
    "https://services.gradle.org/distributions/gradle-5.3-rc-1-bin.zip.sha256",
    200
  ],
  [
    "https://services.gradle.org/distributions/gradle-5.3-rc-1-wrapper.jar.sha256",
    200
  ],
  [
    "https://services.gradle.org/distributions/gradle-5.3-rc-2-all.zip.sha256",
    200
  ],
  [
    "https://services.gradle.org/distributions/gradle-5.3-rc-2-bin.zip.sha256",
    200
  ],
  [
    "https://services.gradle.org/distributions/gradle-5.3-rc-2-wrapper.jar.sha256",
    200
  ],
  [
    "https://services.gradle.org/distributions/gradle-5.3-rc-3-all.zip.sha256",
    200
  ],
  [
    "https://services.gradle.org/distributions/gradle-5.3-rc-3-bin.zip.sha256",
    200
  ],
  [
    "https://services.gradle.org/distributions/gradle-5.3-rc-3-wrapper.jar.sha256",
    200
  ],
  [
    "https://services.gradle.org/distributions/gradle-5.3-wrapper.jar.sha256",
    200
  ],
  [
    "https://services.gradle.org/distributions/gradle-5.3.1-all.zip.sha256",
    200
  ],
  [
    "https://services.gradle.org/distributions/gradle-5.3.1-bin.zip.sha256",
    200
  ],
  [
    "https://services.gradle.org/distributions/gradle-5.3.1-wrapper.jar.sha256",
    200
  ],
  [
    "https://services.gradle.org/distributions/gradle-5.4-all.zip.sha256",
    200
  ],
  [
    "https://services.gradle.org/distributions/gradle-5.4-bin.zip.sha256",
    200
  ],
  [
    "https://services.gradle.org/distributions/gradle-5.4-rc-1-all.zip.sha256",
    200
  ],
  [
    "https://services.gradle.org/distributions/gradle-5.4-rc-1-bin.zip.sha256",
    200
  ],
  [
    "https://services.gradle.org/distributions/gradle-5.4-rc-1-wrapper.jar.sha256",
    200
  ],
  [
    "https://services.gradle.org/distributions/gradle-5.4-wrapper.jar.sha256",
    200
  ],
  [
    "https://services.gradle.org/distributions/gradle-5.4.1-all.zip.sha256",
    200
  ],
  [
    "https://services.gradle.org/distributions/gradle-5.4.1-bin.zip.sha256",
    200
  ],
  [
    "https://services.gradle.org/distributions/gradle-5.4.1-wrapper.jar.sha256",
    200
  ],
  [
    "https://services.gradle.org/distributions/gradle-5.5-all.zip.sha256",
    200
  ],
  [
    "https://services.gradle.org/distributions/gradle-5.5-bin.zip.sha256",
    200
  ],
  [
    "https://services.gradle.org/distributions/gradle-5.5-rc-1-all.zip.sha256",
    200
  ],
  [
    "https://services.gradle.org/distributions/gradle-5.5-rc-1-bin.zip.sha256",
    200
  ],
  [
    "https://services.gradle.org/distributions/gradle-5.5-rc-1-wrapper.jar.sha256",
    200
  ],
  [
    "https://services.gradle.org/distributions/gradle-5.5-rc-2-all.zip.sha256",
    200
  ],
  [
    "https://services.gradle.org/distributions/gradle-5.5-rc-2-bin.zip.sha256",
    200
  ],
  [
    "https://services.gradle.org/distributions/gradle-5.5-rc-2-wrapper.jar.sha256",
    200
  ],
  [
    "https://services.gradle.org/distributions/gradle-5.5-rc-3-all.zip.sha256",
    200
  ],
  [
    "https://services.gradle.org/distributions/gradle-5.5-rc-3-bin.zip.sha256",
    200
  ],
  [
    "https://services.gradle.org/distributions/gradle-5.5-rc-3-wrapper.jar.sha256",
    200
  ],
  [
    "https://services.gradle.org/distributions/gradle-5.5-rc-4-all.zip.sha256",
    200
  ],
  [
    "https://services.gradle.org/distributions/gradle-5.5-rc-4-bin.zip.sha256",
    200
  ],
  [
    "https://services.gradle.org/distributions/gradle-5.5-rc-4-wrapper.jar.sha256",
    200
  ],
  [
    "https://services.gradle.org/distributions/gradle-5.5-wrapper.jar.sha256",
    200
  ],
  [
    "https://services.gradle.org/distributions/gradle-5.5.1-all.zip.sha256",
    200
  ],
  [
    "https://services.gradle.org/distributions/gradle-5.5.1-bin.zip.sha256",
    200
  ],
  [
    "https://services.gradle.org/distributions/gradle-5.5.1-wrapper.jar.sha256",
    200
  ],
  [
    "https://services.gradle.org/distributions/gradle-5.6-all.zip.sha256",
    200
  ],
  [
    "https://services.gradle.org/distributions/gradle-5.6-bin.zip.sha256",
    200
  ],
  [
    "https://services.gradle.org/distributions/gradle-5.6-rc-1-all.zip.sha256",
    200
  ],
  [
    "https://services.gradle.org/distributions/gradle-5.6-rc-1-bin.zip.sha256",
    200
  ],
  [
    "https://services.gradle.org/distributions/gradle-5.6-rc-1-wrapper.jar.sha256",
    200
  ],
  [
    "https://services.gradle.org/distributions/gradle-5.6-rc-2-all.zip.sha256",
    200
  ],
  [
    "https://services.gradle.org/distributions/gradle-5.6-rc-2-bin.zip.sha256",
    200
  ],
  [
    "https://services.gradle.org/distributions/gradle-5.6-rc-2-wrapper.jar.sha256",
    200
  ],
  [
    "https://services.gradle.org/distributions/gradle-5.6-wrapper.jar.sha256",
    200
  ],
  [
    "https://services.gradle.org/distributions/gradle-5.6.1-all.zip.sha256",
    200
  ],
  [
    "https://services.gradle.org/distributions/gradle-5.6.1-bin.zip.sha256",
    200
  ],
  [
    "https://services.gradle.org/distributions/gradle-5.6.1-wrapper.jar.sha256",
    200
  ],
  [
    "https://services.gradle.org/distributions/gradle-5.6.2-all.zip.sha256",
    200
  ],
  [
    "https://services.gradle.org/distributions/gradle-5.6.2-bin.zip.sha256",
    200
  ],
  [
    "https://services.gradle.org/distributions/gradle-5.6.2-wrapper.jar.sha256",
    200
  ],
  [
    "https://services.gradle.org/distributions/gradle-5.6.3-all.zip.sha256",
    200
  ],
  [
    "https://services.gradle.org/distributions/gradle-5.6.3-bin.zip.sha256",
    200
  ],
  [
    "https://services.gradle.org/distributions/gradle-5.6.3-wrapper.jar.sha256",
    200
  ],
  [
    "https://services.gradle.org/distributions/gradle-5.6.4-all.zip.sha256",
    200
  ],
  [
    "https://services.gradle.org/distributions/gradle-5.6.4-bin.zip.sha256",
    200
  ],
  [
    "https://services.gradle.org/distributions/gradle-5.6.4-wrapper.jar.sha256",
    200
  ],
  [
    "https://services.gradle.org/distributions/gradle-6.0-all.zip.sha256",
    200
  ],
  [
    "https://services.gradle.org/distributions/gradle-6.0-bin.zip.sha256",
    200
  ],
  [
    "https://services.gradle.org/distributions/gradle-6.0-rc-1-all.zip.sha256",
    200
  ],
  [
    "https://services.gradle.org/distributions/gradle-6.0-rc-1-bin.zip.sha256",
    200
  ],
  [
    "https://services.gradle.org/distributions/gradle-6.0-rc-1-wrapper.jar.sha256",
    200
  ],
  [
    "https://services.gradle.org/distributions/gradle-6.0-rc-2-all.zip.sha256",
    200
  ],
  [
    "https://services.gradle.org/distributions/gradle-6.0-rc-2-bin.zip.sha256",
    200
  ],
  [
    "https://services.gradle.org/distributions/gradle-6.0-rc-2-wrapper.jar.sha256",
    200
  ],
  [
    "https://services.gradle.org/distributions/gradle-6.0-rc-3-all.zip.sha256",
    200
  ],
  [
    "https://services.gradle.org/distributions/gradle-6.0-rc-3-bin.zip.sha256",
    200
  ],
  [
    "https://services.gradle.org/distributions/gradle-6.0-rc-3-wrapper.jar.sha256",
    200
  ],
  [
    "https://services.gradle.org/distributions/gradle-6.0-wrapper.jar.sha256",
    200
  ],
  [
    "https://services.gradle.org/distributions/gradle-6.0.1-all.zip.sha256",
    200
  ],
  [
    "https://services.gradle.org/distributions/gradle-6.0.1-bin.zip.sha256",
    200
  ],
  [
    "https://services.gradle.org/distributions/gradle-6.0.1-wrapper.jar.sha256",
    200
  ],
  [
    "https://services.gradle.org/distributions/gradle-6.1-all.zip.sha256",
    200
  ],
  [
    "https://services.gradle.org/distributions/gradle-6.1-bin.zip.sha256",
    200
  ],
  [
    "https://services.gradle.org/distributions/gradle-6.1-milestone-1-all.zip.sha256",
    200
  ],
  [
    "https://services.gradle.org/distributions/gradle-6.1-milestone-1-bin.zip.sha256",
    200
  ],
  [
    "https://services.gradle.org/distributions/gradle-6.1-milestone-1-wrapper.jar.sha256",
    200
  ],
  [
    "https://services.gradle.org/distributions/gradle-6.1-milestone-2-all.zip.sha256",
    200
  ],
  [
    "https://services.gradle.org/distributions/gradle-6.1-milestone-2-bin.zip.sha256",
    200
  ],
  [
    "https://services.gradle.org/distributions/gradle-6.1-milestone-2-wrapper.jar.sha256",
    200
  ],
  [
    "https://services.gradle.org/distributions/gradle-6.1-milestone-3-all.zip.sha256",
    200
  ],
  [
    "https://services.gradle.org/distributions/gradle-6.1-milestone-3-bin.zip.sha256",
    200
  ],
  [
    "https://services.gradle.org/distributions/gradle-6.1-milestone-3-wrapper.jar.sha256",
    200
  ],
  [
    "https://services.gradle.org/distributions/gradle-6.1-rc-1-all.zip.sha256",
    200
  ],
  [
    "https://services.gradle.org/distributions/gradle-6.1-rc-1-bin.zip.sha256",
    200
  ],
  [
    "https://services.gradle.org/distributions/gradle-6.1-rc-1-wrapper.jar.sha256",
    200
  ],
  [
    "https://services.gradle.org/distributions/gradle-6.1-rc-2-all.zip.sha256",
    200
  ],
  [
    "https://services.gradle.org/distributions/gradle-6.1-rc-2-bin.zip.sha256",
    200
  ],
  [
    "https://services.gradle.org/distributions/gradle-6.1-rc-2-wrapper.jar.sha256",
    200
  ],
  [
    "https://services.gradle.org/distributions/gradle-6.1-rc-3-all.zip.sha256",
    200
  ],
  [
    "https://services.gradle.org/distributions/gradle-6.1-rc-3-bin.zip.sha256",
    200
  ],
  [
    "https://services.gradle.org/distributions/gradle-6.1-rc-3-wrapper.jar.sha256",
    200
  ],
  [
    "https://services.gradle.org/distributions/gradle-6.1-wrapper.jar.sha256",
    200
  ],
  [
    "https://services.gradle.org/distributions/gradle-6.1.1-all.zip.sha256",
    200
  ],
  [
    "https://services.gradle.org/distributions/gradle-6.1.1-bin.zip.sha256",
    200
  ],
  [
    "https://services.gradle.org/distributions/gradle-6.1.1-wrapper.jar.sha256",
    200
  ],
  [
    "https://services.gradle.org/distributions/gradle-6.2-all.zip.sha256",
    200
  ],
  [
    "https://services.gradle.org/distributions/gradle-6.2-bin.zip.sha256",
    200
  ],
  [
    "https://services.gradle.org/distributions/gradle-6.2-rc-1-all.zip.sha256",
    200
  ],
  [
    "https://services.gradle.org/distributions/gradle-6.2-rc-1-bin.zip.sha256",
    200
  ],
  [
    "https://services.gradle.org/distributions/gradle-6.2-rc-1-wrapper.jar.sha256",
    200
  ],
  [
    "https://services.gradle.org/distributions/gradle-6.2-rc-2-all.zip.sha256",
    200
  ],
  [
    "https://services.gradle.org/distributions/gradle-6.2-rc-2-bin.zip.sha256",
    200
  ],
  [
    "https://services.gradle.org/distributions/gradle-6.2-rc-2-wrapper.jar.sha256",
    200
  ],
  [
    "https://services.gradle.org/distributions/gradle-6.2-rc-3-all.zip.sha256",
    200
  ],
  [
    "https://services.gradle.org/distributions/gradle-6.2-rc-3-bin.zip.sha256",
    200
  ],
  [
    "https://services.gradle.org/distributions/gradle-6.2-rc-3-wrapper.jar.sha256",
    200
  ],
  [
    "https://services.gradle.org/distributions/gradle-6.2-wrapper.jar.sha256",
    200
  ],
  [
    "https://services.gradle.org/distributions/gradle-6.2.1-all.zip.sha256",
    200
  ],
  [
    "https://services.gradle.org/distributions/gradle-6.2.1-bin.zip.sha256",
    200
  ],
  [
    "https://services.gradle.org/distributions/gradle-6.2.1-wrapper.jar.sha256",
    200
  ],
  [
    "https://services.gradle.org/distributions/gradle-6.2.2-all.zip.sha256",
    200
  ],
  [
    "https://services.gradle.org/distributions/gradle-6.2.2-bin.zip.sha256",
    200
  ],
  [
    "https://services.gradle.org/distributions/gradle-6.2.2-wrapper.jar.sha256",
    200
  ],
  [
    "https://services.gradle.org/distributions/gradle-6.3-all.zip.sha256",
    200
  ],
  [
    "https://services.gradle.org/distributions/gradle-6.3-bin.zip.sha256",
    200
  ],
  [
    "https://services.gradle.org/distributions/gradle-6.3-rc-1-all.zip.sha256",
    200
  ],
  [
    "https://services.gradle.org/distributions/gradle-6.3-rc-1-bin.zip.sha256",
    200
  ],
  [
    "https://services.gradle.org/distributions/gradle-6.3-rc-1-wrapper.jar.sha256",
    200
  ],
  [
    "https://services.gradle.org/distributions/gradle-6.3-rc-2-all.zip.sha256",
    200
  ],
  [
    "https://services.gradle.org/distributions/gradle-6.3-rc-2-bin.zip.sha256",
    200
  ],
  [
    "https://services.gradle.org/distributions/gradle-6.3-rc-2-wrapper.jar.sha256",
    200
  ],
  [
    "https://services.gradle.org/distributions/gradle-6.3-rc-3-all.zip.sha256",
    200
  ],
  [
    "https://services.gradle.org/distributions/gradle-6.3-rc-3-bin.zip.sha256",
    200
  ],
  [
    "https://services.gradle.org/distributions/gradle-6.3-rc-3-wrapper.jar.sha256",
    200
  ],
  [
    "https://services.gradle.org/distributions/gradle-6.3-rc-4-all.zip.sha256",
    200
  ],
  [
    "https://services.gradle.org/distributions/gradle-6.3-rc-4-bin.zip.sha256",
    200
  ],
  [
    "https://services.gradle.org/distributions/gradle-6.3-rc-4-wrapper.jar.sha256",
    200
  ],
  [
    "https://services.gradle.org/distributions/gradle-6.3-wrapper.jar.sha256",
    200
  ],
  [
    "https://services.gradle.org/distributions/gradle-6.4-all.zip.sha256",
    200
  ],
  [
    "https://services.gradle.org/distributions/gradle-6.4-bin.zip.sha256",
    200
  ],
  [
    "https://services.gradle.org/distributions/gradle-6.4-rc-1-all.zip.sha256",
    200
  ],
  [
    "https://services.gradle.org/distributions/gradle-6.4-rc-1-bin.zip.sha256",
    200
  ],
  [
    "https://services.gradle.org/distributions/gradle-6.4-rc-1-wrapper.jar.sha256",
    200
  ],
  [
    "https://services.gradle.org/distributions/gradle-6.4-rc-2-all.zip.sha256",
    200
  ],
  [
    "https://services.gradle.org/distributions/gradle-6.4-rc-2-bin.zip.sha256",
    200
  ],
  [
    "https://services.gradle.org/distributions/gradle-6.4-rc-2-wrapper.jar.sha256",
    200
  ],
  [
    "https://services.gradle.org/distributions/gradle-6.4-rc-3-all.zip.sha256",
    200
  ],
  [
    "https://services.gradle.org/distributions/gradle-6.4-rc-3-bin.zip.sha256",
    200
  ],
  [
    "https://services.gradle.org/distributions/gradle-6.4-rc-3-wrapper.jar.sha256",
    200
  ],
  [
    "https://services.gradle.org/distributions/gradle-6.4-rc-4-all.zip.sha256",
    200
  ],
  [
    "https://services.gradle.org/distributions/gradle-6.4-rc-4-bin.zip.sha256",
    200
  ],
  [
    "https://services.gradle.org/distributions/gradle-6.4-rc-4-wrapper.jar.sha256",
    200
  ],
  [
    "https://services.gradle.org/distributions/gradle-6.4-wrapper.jar.sha256",
    200
  ],
  [
    "https://services.gradle.org/distributions/gradle-6.4.1-all.zip.sha256",
    200
  ],
  [
    "https://services.gradle.org/distributions/gradle-6.4.1-bin.zip.sha256",
    200
  ],
  [
    "https://services.gradle.org/distributions/gradle-6.4.1-wrapper.jar.sha256",
    200
  ],
  [
    "https://services.gradle.org/distributions/gradle-6.5-all.zip.sha256",
    200
  ],
  [
    "https://services.gradle.org/distributions/gradle-6.5-bin.zip.sha256",
    200
  ],
  [
    "https://services.gradle.org/distributions/gradle-6.5-milestone-1-all.zip.sha256",
    200
  ],
  [
    "https://services.gradle.org/distributions/gradle-6.5-milestone-1-bin.zip.sha256",
    200
  ],
  [
    "https://services.gradle.org/distributions/gradle-6.5-milestone-1-wrapper.jar.sha256",
    200
  ],
  [
    "https://services.gradle.org/distributions/gradle-6.5-milestone-2-all.zip.sha256",
    200
  ],
  [
    "https://services.gradle.org/distributions/gradle-6.5-milestone-2-bin.zip.sha256",
    200
  ],
  [
    "https://services.gradle.org/distributions/gradle-6.5-milestone-2-wrapper.jar.sha256",
    200
  ],
  [
    "https://services.gradle.org/distributions/gradle-6.5-rc-1-all.zip.sha256",
    200
  ],
  [
    "https://services.gradle.org/distributions/gradle-6.5-rc-1-bin.zip.sha256",
    200
  ],
  [
    "https://services.gradle.org/distributions/gradle-6.5-rc-1-wrapper.jar.sha256",
    200
  ],
  [
    "https://services.gradle.org/distributions/gradle-6.5-wrapper.jar.sha256",
    200
  ],
  [
    "https://services.gradle.org/distributions/gradle-6.5.1-all.zip.sha256",
    200
  ],
  [
    "https://services.gradle.org/distributions/gradle-6.5.1-bin.zip.sha256",
    200
  ],
  [
    "https://services.gradle.org/distributions/gradle-6.5.1-wrapper.jar.sha256",
    200
  ],
  [
    "https://services.gradle.org/distributions/gradle-6.6-all.zip.sha256",
    200
  ],
  [
    "https://services.gradle.org/distributions/gradle-6.6-bin.zip.sha256",
    200
  ],
  [
    "https://services.gradle.org/distributions/gradle-6.6-milestone-1-all.zip.sha256",
    200
  ],
  [
    "https://services.gradle.org/distributions/gradle-6.6-milestone-1-bin.zip.sha256",
    200
  ],
  [
    "https://services.gradle.org/distributions/gradle-6.6-milestone-1-wrapper.jar.sha256",
    200
  ],
  [
    "https://services.gradle.org/distributions/gradle-6.6-milestone-2-all.zip.sha256",
    200
  ],
  [
    "https://services.gradle.org/distributions/gradle-6.6-milestone-2-bin.zip.sha256",
    200
  ],
  [
    "https://services.gradle.org/distributions/gradle-6.6-milestone-2-wrapper.jar.sha256",
    200
  ],
  [
    "https://services.gradle.org/distributions/gradle-6.6-milestone-3-all.zip.sha256",
    200
  ],
  [
    "https://services.gradle.org/distributions/gradle-6.6-milestone-3-bin.zip.sha256",
    200
  ],
  [
    "https://services.gradle.org/distributions/gradle-6.6-milestone-3-wrapper.jar.sha256",
    200
  ],
  [
    "https://services.gradle.org/distributions/gradle-6.6-rc-1-all.zip.sha256",
    200
  ],
  [
    "https://services.gradle.org/distributions/gradle-6.6-rc-1-bin.zip.sha256",
    200
  ],
  [
    "https://services.gradle.org/distributions/gradle-6.6-rc-1-wrapper.jar.sha256",
    200
  ],
  [
    "https://services.gradle.org/distributions/gradle-6.6-rc-2-all.zip.sha256",
    200
  ],
  [
    "https://services.gradle.org/distributions/gradle-6.6-rc-2-bin.zip.sha256",
    200
  ],
  [
    "https://services.gradle.org/distributions/gradle-6.6-rc-2-wrapper.jar.sha256",
    200
  ],
  [
    "https://services.gradle.org/distributions/gradle-6.6-rc-3-all.zip.sha256",
    200
  ],
  [
    "https://services.gradle.org/distributions/gradle-6.6-rc-3-bin.zip.sha256",
    200
  ],
  [
    "https://services.gradle.org/distributions/gradle-6.6-rc-3-wrapper.jar.sha256",
    200
  ],
  [
    "https://services.gradle.org/distributions/gradle-6.6-rc-4-all.zip.sha256",
    200
  ],
  [
    "https://services.gradle.org/distributions/gradle-6.6-rc-4-bin.zip.sha256",
    200
  ],
  [
    "https://services.gradle.org/distributions/gradle-6.6-rc-4-wrapper.jar.sha256",
    200
  ],
  [
    "https://services.gradle.org/distributions/gradle-6.6-rc-5-all.zip.sha256",
    200
  ],
  [
    "https://services.gradle.org/distributions/gradle-6.6-rc-5-bin.zip.sha256",
    200
  ],
  [
    "https://services.gradle.org/distributions/gradle-6.6-rc-5-wrapper.jar.sha256",
    200
  ],
  [
    "https://services.gradle.org/distributions/gradle-6.6-rc-6-all.zip.sha256",
    200
  ],
  [
    "https://services.gradle.org/distributions/gradle-6.6-rc-6-bin.zip.sha256",
    200
  ],
  [
    "https://services.gradle.org/distributions/gradle-6.6-rc-6-wrapper.jar.sha256",
    200
  ],
  [
    "https://services.gradle.org/distributions/gradle-6.6-wrapper.jar.sha256",
    200
  ],
  [
    "https://services.gradle.org/distributions/gradle-6.6.1-all.zip.sha256",
    200
  ],
  [
    "https://services.gradle.org/distributions/gradle-6.6.1-bin.zip.sha256",
    200
  ],
  [
    "https://services.gradle.org/distributions/gradle-6.6.1-wrapper.jar.sha256",
    200
  ],
  [
    "https://services.gradle.org/distributions/gradle-6.7-all.zip.sha256",
    200
  ],
  [
    "https://services.gradle.org/distributions/gradle-6.7-bin.zip.sha256",
    200
  ],
  [
    "https://services.gradle.org/distributions/gradle-6.7-rc-1-all.zip.sha256",
    200
  ],
  [
    "https://services.gradle.org/distributions/gradle-6.7-rc-1-bin.zip.sha256",
    200
  ],
  [
    "https://services.gradle.org/distributions/gradle-6.7-rc-1-wrapper.jar.sha256",
    200
  ],
  [
    "https://services.gradle.org/distributions/gradle-6.7-rc-2-all.zip.sha256",
    200
  ],
  [
    "https://services.gradle.org/distributions/gradle-6.7-rc-2-bin.zip.sha256",
    200
  ],
  [
    "https://services.gradle.org/distributions/gradle-6.7-rc-2-wrapper.jar.sha256",
    200
  ],
  [
    "https://services.gradle.org/distributions/gradle-6.7-rc-3-all.zip.sha256",
    200
  ],
  [
    "https://services.gradle.org/distributions/gradle-6.7-rc-3-bin.zip.sha256",
    200
  ],
  [
    "https://services.gradle.org/distributions/gradle-6.7-rc-3-wrapper.jar.sha256",
    200
  ],
  [
    "https://services.gradle.org/distributions/gradle-6.7-rc-4-all.zip.sha256",
    200
  ],
  [
    "https://services.gradle.org/distributions/gradle-6.7-rc-4-bin.zip.sha256",
    200
  ],
  [
    "https://services.gradle.org/distributions/gradle-6.7-rc-4-wrapper.jar.sha256",
    200
  ],
  [
    "https://services.gradle.org/distributions/gradle-6.7-rc-5-all.zip.sha256",
    200
  ],
  [
    "https://services.gradle.org/distributions/gradle-6.7-rc-5-bin.zip.sha256",
    200
  ],
  [
    "https://services.gradle.org/distributions/gradle-6.7-rc-5-wrapper.jar.sha256",
    200
  ],
  [
    "https://services.gradle.org/distributions/gradle-6.7-wrapper.jar.sha256",
    200
  ],
  [
    "https://services.gradle.org/distributions/gradle-6.7.1-all.zip.sha256",
    200
  ],
  [
    "https://services.gradle.org/distributions/gradle-6.7.1-bin.zip.sha256",
    200
  ],
  [
    "https://services.gradle.org/distributions/gradle-6.7.1-wrapper.jar.sha256",
    200
  ],
  [
    "https://services.gradle.org/distributions/gradle-6.8-all.zip.sha256",
    200
  ],
  [
    "https://services.gradle.org/distributions/gradle-6.8-bin.zip.sha256",
    200
  ],
  [
    "https://services.gradle.org/distributions/gradle-6.8-milestone-1-all.zip.sha256",
    200
  ],
  [
    "https://services.gradle.org/distributions/gradle-6.8-milestone-1-bin.zip.sha256",
    200
  ],
  [
    "https://services.gradle.org/distributions/gradle-6.8-milestone-1-wrapper.jar.sha256",
    200
  ],
  [
    "https://services.gradle.org/distributions/gradle-6.8-milestone-2-all.zip.sha256",
    200
  ],
  [
    "https://services.gradle.org/distributions/gradle-6.8-milestone-2-bin.zip.sha256",
    200
  ],
  [
    "https://services.gradle.org/distributions/gradle-6.8-milestone-2-wrapper.jar.sha256",
    200
  ],
  [
    "https://services.gradle.org/distributions/gradle-6.8-milestone-3-all.zip.sha256",
    200
  ],
  [
    "https://services.gradle.org/distributions/gradle-6.8-milestone-3-bin.zip.sha256",
    200
  ],
  [
    "https://services.gradle.org/distributions/gradle-6.8-milestone-3-wrapper.jar.sha256",
    200
  ],
  [
    "https://services.gradle.org/distributions/gradle-6.8-rc-1-all.zip.sha256",
    200
  ],
  [
    "https://services.gradle.org/distributions/gradle-6.8-rc-1-bin.zip.sha256",
    200
  ],
  [
    "https://services.gradle.org/distributions/gradle-6.8-rc-1-wrapper.jar.sha256",
    200
  ],
  [
    "https://services.gradle.org/distributions/gradle-6.8-rc-3-all.zip.sha256",
    200
  ],
  [
    "https://services.gradle.org/distributions/gradle-6.8-rc-3-bin.zip.sha256",
    200
  ],
  [
    "https://services.gradle.org/distributions/gradle-6.8-rc-3-wrapper.jar.sha256",
    200
  ],
  [
    "https://services.gradle.org/distributions/gradle-6.8-rc-4-all.zip.sha256",
    200
  ],
  [
    "https://services.gradle.org/distributions/gradle-6.8-rc-4-bin.zip.sha256",
    200
  ],
  [
    "https://services.gradle.org/distributions/gradle-6.8-rc-4-wrapper.jar.sha256",
    200
  ],
  [
    "https://services.gradle.org/distributions/gradle-6.8-rc-5-all.zip.sha256",
    200
  ],
  [
    "https://services.gradle.org/distributions/gradle-6.8-rc-5-bin.zip.sha256",
    200
  ],
  [
    "https://services.gradle.org/distributions/gradle-6.8-rc-5-wrapper.jar.sha256",
    200
  ],
  [
    "https://services.gradle.org/distributions/gradle-6.8-wrapper.jar.sha256",
    200
  ],
  [
    "https://services.gradle.org/distributions/gradle-6.8.1-all.zip.sha256",
    200
  ],
  [
    "https://services.gradle.org/distributions/gradle-6.8.1-bin.zip.sha256",
    200
  ],
  [
    "https://services.gradle.org/distributions/gradle-6.8.1-wrapper.jar.sha256",
    200
  ],
  [
    "https://services.gradle.org/distributions/gradle-6.8.2-all.zip.sha256",
    200
  ],
  [
    "https://services.gradle.org/distributions/gradle-6.8.2-bin.zip.sha256",
    200
  ],
  [
    "https://services.gradle.org/distributions/gradle-6.8.2-wrapper.jar.sha256",
    200
  ],
  [
    "https://services.gradle.org/distributions/gradle-6.8.3-all.zip.sha256",
    200
  ],
  [
    "https://services.gradle.org/distributions/gradle-6.8.3-bin.zip.sha256",
    200
  ],
  [
    "https://services.gradle.org/distributions/gradle-6.8.3-wrapper.jar.sha256",
    200
  ],
  [
    "https://services.gradle.org/distributions/gradle-7.0-milestone-1-all.zip.sha256",
    200
  ],
  [
    "https://services.gradle.org/distributions/gradle-7.0-milestone-1-bin.zip.sha256",
    200
  ],
  [
    "https://services.gradle.org/distributions/gradle-7.0-milestone-1-wrapper.jar.sha256",
    200
  ],
  [
    "https://services.gradle.org/distributions/gradle-7.0-milestone-2-all.zip.sha256",
    200
  ],
  [
    "https://services.gradle.org/distributions/gradle-7.0-milestone-2-bin.zip.sha256",
    200
  ],
  [
    "https://services.gradle.org/distributions/gradle-7.0-milestone-2-wrapper.jar.sha256",
    200
  ],
  [
    "https://services.gradle.org/distributions/gradle-7.0-milestone-3-all.zip.sha256",
    200
  ],
  [
    "https://services.gradle.org/distributions/gradle-7.0-milestone-3-bin.zip.sha256",
    200
  ],
  [
    "https://services.gradle.org/distributions/gradle-7.0-milestone-3-wrapper.jar.sha256",
    200
  ],
  [
    "https://services.gradle.org/distributions/gradle-7.0-rc-1-all.zip.sha256",
    200
  ],
  [
    "https://services.gradle.org/distributions/gradle-7.0-rc-1-bin.zip.sha256",
    200
  ],
  [
    "https://services.gradle.org/distributions/gradle-7.0-rc-1-wrapper.jar.sha256",
    200
  ],
  [
    "https://services.gradle.org/distributions/gradle-7.0-rc-2-all.zip.sha256",
    200
  ],
  [
    "https://services.gradle.org/distributions/gradle-7.0-rc-2-bin.zip.sha256",
    200
  ],
  [
    "https://services.gradle.org/distributions/gradle-7.0-rc-2-wrapper.jar.sha256",
    200
  ],
  [
    "https://services.gradle.org/versions/all",
    200
  ]
]